Diamond Price Estimation
…
diamonds %>%
  filter(z == 31.8) %>%
  mutate(new_z = depth * mean(c(5.12, 5.15)) / 100) %>%
  select(z, new_z)

## # A tibble: 1 x 2
##       z new_z
##   <dbl> <dbl>
## 1  31.8  3.17

So, we can say that this value should be divided by 10. We can compare the other z values that have similar x and y values with this z value.

diamonds[abs(diamonds$x - 5) < 1 & abs(diamonds$y - 5) < 1 & abs(diamonds$z - 3.18) < 1, "z"]

## # A tibble: 30,800 x 1
##        z
##    <dbl>
##  1  2.31
##  2  2.63
##  3  2.75
##  4  2.53
##  5  2.73
##  6  2.71
##  7  2.68
##  8  2.68
##  9  2.7 
## 10  2.71
## # ... with 30,790 more rows
…
